<?xml version="1.0" encoding="utf-8"?>
<!-- Generator: Adobe Illustrator 16.0.0, SVG Export Plug-In . SVG Version: 6.00 Build 0)  -->
<!DOCTYPE svg PUBLIC "-//W3C//DTD SVG 1.1//EN" "http://www.w3.org/Graphics/SVG/1.1/DTD/svg11.dtd">
<svg version="1.1" id="_x32_" xmlns="http://www.w3.org/2000/svg" xmlns:xlink="http://www.w3.org/1999/xlink" x="0px" y="0px"
	 width="1400px" height="1497.149px" viewBox="0 258.245 1400 1497.149" enable-background="new 0 258.245 1400 1497.149"
	 xml:space="preserve">
<g>
	<path fill="#FFFFFF" d="M386.969,1006.65c116.517,0,211.307-94.79,211.307-211.307c0-116.496-94.79-211.285-211.307-211.285
		c-116.495,0-211.267,94.792-211.267,211.285C175.702,911.86,270.474,1006.65,386.969,1006.65z M386.969,650.052
		c80.133,0,145.313,65.182,145.313,145.291c0,80.131-65.182,145.315-145.313,145.315c-80.109,0-145.272-65.183-145.272-145.315
		C241.697,715.234,306.86,650.052,386.969,650.052z"/>
	<path fill="#FFFFFF" d="M913.109,863.84c155.446,0,281.931-126.484,281.931-281.931S1068.555,300,913.109,300
		C757.665,300,631.2,426.463,631.2,581.909S757.665,863.84,913.109,863.84z M913.109,365.994
		c119.063,0,215.937,96.857,215.937,215.918c0,119.06-96.873,215.936-215.937,215.936c-119.06,0-215.914-96.873-215.914-215.936
		C697.195,462.848,794.051,365.994,913.109,365.994z"/>
	<path fill="#FFFFFF" d="M545.024,1700h736.176l-0.104-534.941c-20.35-95.083-138.267-245.919-367.984-245.919
		c-184.344,0-296.546,97.146-344.315,185.139l-2.064-1.563c-34.341-25.878-93.308-56.735-180.217-56.735
		c-92.332,0-153.863,34.967-189.208,64.285c-20.809,17.201-38.407,37.031-52.316,58.988c-12.698,20.122-21.269,40.182-25.457,59.615
		l-0.73,3.857v378.493h413.563v-65.997H184.794l-0.125-304.763c1.586-6.464,5.774-19.704,16.078-35.927
		c11.093-17.536,31.59-42.621,66.286-62.596c34.527-19.87,74.875-29.941,119.936-29.963c54.463,0.063,101.631,14.722,140.164,43.518
		l3.42,2.543l33.737-44.976c-9.215,18.539-15.783,36.531-19.267,52.899V1700z M913.109,985.134
		c183.597,0,282.827,115.724,302.094,187.559v461.313H611.015l-0.145-460.209C630.281,1100.857,729.515,985.134,913.109,985.134z"/>
</g>
</svg>
